\relax 
\providecommand\zref@newlabel[2]{}
\providecommand\hyper@newdestlabel[2]{}
\providecommand\BKM@entry[2]{}
\abx@aux@sortscheme{nyt}
\abx@aux@refcontext{nyt/global/}
\providecommand\HyperFirstAtBeginDocument{\AtBeginDocument}
\HyperFirstAtBeginDocument{\ifx\hyper@anchor\@undefined
\global\let\oldcontentsline\contentsline
\gdef\contentsline#1#2#3#4{\oldcontentsline{#1}{#2}{#3}}
\global\let\oldnewlabel\newlabel
\gdef\newlabel#1#2{\newlabelxx{#1}#2}
\gdef\newlabelxx#1#2#3#4#5#6{\oldnewlabel{#1}{{#2}{#3}}}
\AtEndDocument{\ifx\hyper@anchor\@undefined
\let\contentsline\oldcontentsline
\let\newlabel\oldnewlabel
\fi}
\fi}
\global\let\hyper@last\relax 
\gdef\HyperFirstAtBeginDocument#1{#1}
\providecommand\HyField@AuxAddToFields[1]{}
\providecommand\HyField@AuxAddToCoFields[2]{}
\@writefile{toc}{\boolfalse {citerequest}\boolfalse {citetracker}\boolfalse {pagetracker}\boolfalse {backtracker}\relax }
\@writefile{lof}{\boolfalse {citerequest}\boolfalse {citetracker}\boolfalse {pagetracker}\boolfalse {backtracker}\relax }
\@writefile{lot}{\boolfalse {citerequest}\boolfalse {citetracker}\boolfalse {pagetracker}\boolfalse {backtracker}\relax }
\select@language{english}
\@writefile{toc}{\defcounter {refsection}{0}\relax }\@writefile{toc}{\select@language{english}}
\@writefile{lof}{\defcounter {refsection}{0}\relax }\@writefile{lof}{\select@language{english}}
\@writefile{lot}{\defcounter {refsection}{0}\relax }\@writefile{lot}{\select@language{english}}
\pgfsyspdfmark {pgfid2}{0}{55380990}
\pgfsyspdfmark {pgfid1}{6708151}{48902215}
\pgfsyspdfmark {pgfid4}{0}{55380990}
\pgfsyspdfmark {pgfid3}{6708151}{48902215}
\BKM@entry{id=1,open,dest={706172742E31},color={.95294 .4 .09804},flags=2,srcline={79}}{506172742049205C3230342050617274204F6E65}
\@writefile{toc}{\defcounter {refsection}{0}\relax }\@writefile{toc}{\contentsline {part}{\@mypartnumtocformat {I}{Part One}}{7}{part.1}}
\ttl@writefile{ptc}{\ttl@starttoc{default@1}}
\pgfsyspdfmark {pgfid6}{0}{55380990}
\pgfsyspdfmark {pgfid5}{6708151}{33817350}
\@writefile{toc}{\defcounter {refsection}{0}\relax }\@writefile{toc}{\contentsline {subsection}{\numberline {0.0.1}Introduzione}{9}{subsection.0.0.1}}
\@writefile{toc}{\defcounter {refsection}{0}\relax }\@writefile{toc}{\contentsline {paragraph}{Cap. 1 - The tar pit}{9}{section*.2}}
\@writefile{toc}{\defcounter {refsection}{0}\relax }\@writefile{toc}{\contentsline {paragraph}{Cap. 2 - MMM}{9}{section*.3}}
\@writefile{toc}{\defcounter {refsection}{0}\relax }\@writefile{toc}{\contentsline {paragraph}{Cap. 3 - *The Surgical Team}{10}{section*.4}}
\@writefile{toc}{\defcounter {refsection}{0}\relax }\@writefile{toc}{\contentsline {paragraph}{No silver bullet}{10}{section*.5}}
\@writefile{toc}{\defcounter {refsection}{0}\relax }\@writefile{toc}{\contentsline {paragraph}{Second system effect}{10}{section*.6}}
\@writefile{toc}{\defcounter {refsection}{0}\relax }\@writefile{toc}{\contentsline {paragraph}{The tendency towards irreducible number of errors}{10}{section*.7}}
\BKM@entry{id=2,open,dest={636861707465722E31},flags=2,srcline={89}}{312043617474656472616C652C2062617A6161722C206B69626275747A}
\BKM@entry{id=3,open,dest={73656374696F6E2E312E31},srcline={36}}{312E31204D6F64656C6C69206F7267616E697A7A6174697669}
\@writefile{toc}{\defcounter {refsection}{0}\relax }\@writefile{toc}{\contentsline {chapter}{\numberline {1}Cattedrale, bazaar, kibbutz}{11}{chapter.1}}
\@writefile{lof}{\defcounter {refsection}{0}\relax }\@writefile{lof}{\addvspace {10\p@ }}
\@writefile{lot}{\defcounter {refsection}{0}\relax }\@writefile{lot}{\addvspace {10\p@ }}
\pgfsyspdfmark {pgfid8}{0}{55380990}
\pgfsyspdfmark {pgfid7}{5594039}{48902215}
\@writefile{toc}{\defcounter {refsection}{0}\relax }\@writefile{toc}{\contentsline {section}{\numberline {1.1}Modelli organizzativi}{12}{section.1.1}}
\@writefile{toc}{\defcounter {refsection}{0}\relax }\@writefile{toc}{\contentsline {subsection}{\numberline {1.1.1}Bazaar}{12}{subsection.1.1.1}}
\@writefile{toc}{\defcounter {refsection}{0}\relax }\@writefile{toc}{\contentsline {paragraph}{Come utilizzo al meglio bazaar?}{12}{section*.8}}
\BKM@entry{id=4,open,dest={73656374696F6E2E312E32},srcline={73}}{312E3220556E2070726F626C656D612070695C333731206772616E6465205C286D6120766963696E6F2061206E6F695C29}
\BKM@entry{id=5,open,dest={73656374696F6E2E312E33},srcline={108}}{312E33205175616C65205C33353020696C206D6F64656C6C6F2063686520726973706F6E646520616C6C65206E6F73747265206E656365737369745C3334303F}
\@writefile{toc}{\defcounter {refsection}{0}\relax }\@writefile{toc}{\contentsline {section}{\numberline {1.2}Un problema pi\IeC {\`u} grande (ma vicino a noi)}{13}{section.1.2}}
\@writefile{toc}{\defcounter {refsection}{0}\relax }\@writefile{toc}{\contentsline {subsection}{\numberline {1.2.1}Distribuzioni}{13}{subsection.1.2.1}}
\@writefile{toc}{\defcounter {refsection}{0}\relax }\@writefile{toc}{\contentsline {subsection}{\numberline {1.2.2}Fissa sul Debian}{13}{subsection.1.2.2}}
\@writefile{toc}{\defcounter {refsection}{0}\relax }\@writefile{toc}{\contentsline {subsection}{\numberline {1.2.3}Package}{13}{subsection.1.2.3}}
\@writefile{toc}{\defcounter {refsection}{0}\relax }\@writefile{toc}{\contentsline {section}{\numberline {1.3}Quale \IeC {\`e} il modello che risponde alle nostre necessit\IeC {\`a}?}{13}{section.1.3}}
\BKM@entry{id=6,open,dest={636861707465722E32},flags=2,srcline={98}}{322046726F6D2042617A61617220746F204B69626275747A3A20486F772046726565646F6D204465616C73207769746820436F686572656E636520696E207468652044656269616E2050726F6A656374}
\@writefile{toc}{\defcounter {refsection}{0}\relax }\@writefile{toc}{\contentsline {chapter}{\numberline {2}From Bazaar to Kibbutz: How Freedom Deals with Coherence in the Debian Project}{15}{chapter.2}}
\@writefile{lof}{\defcounter {refsection}{0}\relax }\@writefile{lof}{\addvspace {10\p@ }}
\@writefile{lot}{\defcounter {refsection}{0}\relax }\@writefile{lot}{\addvspace {10\p@ }}
\pgfsyspdfmark {pgfid10}{0}{55380990}
\pgfsyspdfmark {pgfid9}{5594039}{48902215}
\@writefile{toc}{\defcounter {refsection}{0}\relax }\@writefile{toc}{\contentsline {paragraph}{Distribuzioni}{15}{section*.9}}
\@writefile{toc}{\defcounter {refsection}{0}\relax }\@writefile{toc}{\contentsline {subparagraph}{Il valore delle distribuzioni}{15}{section*.10}}
\@writefile{toc}{\defcounter {refsection}{0}\relax }\@writefile{toc}{\contentsline {subparagraph}{I pacchetti}{16}{section*.11}}
\@writefile{toc}{\defcounter {refsection}{0}\relax }\@writefile{toc}{\contentsline {subparagraph}{Particolarit\IeC {\`a} di Debian}{16}{section*.12}}
\@writefile{toc}{\defcounter {refsection}{0}\relax }\@writefile{toc}{\contentsline {subparagraph}{Kibbutz}{16}{section*.13}}
\BKM@entry{id=7,open,dest={636861707465722E33},flags=2,srcline={102}}{33204D65746F646F6C6F676965206167696C69}
\BKM@entry{id=8,open,dest={73656374696F6E2E332E31},srcline={9}}{332E31204D65746F646F6C6F676965206167696C69}
\@writefile{toc}{\defcounter {refsection}{0}\relax }\@writefile{toc}{\contentsline {chapter}{\numberline {3}Metodologie agili}{17}{chapter.3}}
\@writefile{lof}{\defcounter {refsection}{0}\relax }\@writefile{lof}{\addvspace {10\p@ }}
\@writefile{lot}{\defcounter {refsection}{0}\relax }\@writefile{lot}{\addvspace {10\p@ }}
\pgfsyspdfmark {pgfid12}{0}{55380990}
\pgfsyspdfmark {pgfid11}{5594039}{48902215}
\@writefile{toc}{\defcounter {refsection}{0}\relax }\@writefile{toc}{\contentsline {paragraph}{Riassunto}{17}{section*.14}}
\@writefile{toc}{\defcounter {refsection}{0}\relax }\@writefile{toc}{\contentsline {section}{\numberline {3.1}Metodologie agili}{17}{section.3.1}}
\@writefile{toc}{\defcounter {refsection}{0}\relax }\@writefile{toc}{\contentsline {subsection}{\numberline {3.1.1}Il manifesto agile}{18}{subsection.3.1.1}}
\@writefile{toc}{\defcounter {refsection}{0}\relax }\@writefile{toc}{\contentsline {paragraph}{Principi}{18}{section*.15}}
\@writefile{toc}{\defcounter {refsection}{0}\relax }\@writefile{toc}{\contentsline {paragraph}{Un manifesto politico}{18}{section*.16}}
\@writefile{toc}{\defcounter {refsection}{0}\relax }\@writefile{toc}{\contentsline {paragraph}{I veri punti chiave}{18}{section*.17}}
\@writefile{toc}{\defcounter {refsection}{0}\relax }\@writefile{toc}{\contentsline {subparagraph}{team piccoli}{18}{section*.18}}
\@writefile{toc}{\defcounter {refsection}{0}\relax }\@writefile{toc}{\contentsline {subparagraph}{Decisioni upfront}{18}{section*.19}}
\@writefile{toc}{\defcounter {refsection}{0}\relax }\@writefile{toc}{\contentsline {subparagraph}{Misura del progresso}{18}{section*.20}}
\@writefile{toc}{\defcounter {refsection}{0}\relax }\@writefile{toc}{\contentsline {subparagraph}{Test:}{19}{section*.21}}
\@writefile{toc}{\defcounter {refsection}{0}\relax }\@writefile{toc}{\contentsline {subparagraph}{Committenza}{19}{section*.22}}
\@writefile{toc}{\defcounter {refsection}{0}\relax }\@writefile{toc}{\contentsline {paragraph}{Semplicit\IeC {\`a} e minimalismo}{19}{section*.23}}
\@writefile{toc}{\defcounter {refsection}{0}\relax }\@writefile{toc}{\contentsline {paragraph}{User stories e test}{19}{section*.24}}
\@writefile{toc}{\defcounter {refsection}{0}\relax }\@writefile{toc}{\contentsline {paragraph}{TDD}{19}{section*.25}}
\@writefile{toc}{\defcounter {refsection}{0}\relax }\@writefile{toc}{\contentsline {subsection}{\numberline {3.1.2}SCRUM}{20}{subsection.3.1.2}}
\@writefile{toc}{\defcounter {refsection}{0}\relax }\@writefile{toc}{\contentsline {paragraph}{Tecniche di lavoro}{20}{section*.26}}
\@writefile{toc}{\defcounter {refsection}{0}\relax }\@writefile{toc}{\contentsline {paragraph}{Task board}{21}{section*.27}}
\@writefile{toc}{\defcounter {refsection}{0}\relax }\@writefile{toc}{\contentsline {paragraph}{Velocity tracking}{21}{section*.28}}
\@writefile{toc}{\defcounter {refsection}{0}\relax }\@writefile{toc}{\contentsline {paragraph}{Pair programming}{21}{section*.29}}
\@writefile{toc}{\defcounter {refsection}{0}\relax }\@writefile{toc}{\contentsline {paragraph}{Codice condiviso}{22}{section*.30}}
\@writefile{toc}{\defcounter {refsection}{0}\relax }\@writefile{toc}{\contentsline {paragraph}{Refactoring}{22}{section*.31}}
\@writefile{toc}{\defcounter {refsection}{0}\relax }\@writefile{toc}{\contentsline {paragraph}{Test 2-mock}{22}{section*.32}}
\BKM@entry{id=9,open,dest={636861707465722E34},flags=2,srcline={106}}{3420446F63756D656E74617A696F6E6520636F6D706F6E656E7469}
\@writefile{toc}{\defcounter {refsection}{0}\relax }\@writefile{toc}{\contentsline {chapter}{\numberline {4}Documentazione componenti}{23}{chapter.4}}
\@writefile{lof}{\defcounter {refsection}{0}\relax }\@writefile{lof}{\addvspace {10\p@ }}
\@writefile{lot}{\defcounter {refsection}{0}\relax }\@writefile{lot}{\addvspace {10\p@ }}
\pgfsyspdfmark {pgfid14}{0}{55380990}
\pgfsyspdfmark {pgfid13}{5594039}{48902215}
\@writefile{toc}{\defcounter {refsection}{0}\relax }\@writefile{toc}{\contentsline {paragraph}{Dipendenze}{23}{section*.33}}
\@writefile{toc}{\defcounter {refsection}{0}\relax }\@writefile{toc}{\contentsline {subsection}{\numberline {4.0.1}Librerie di supporto/dipendenze di sviluppo}{23}{subsection.4.0.1}}
\BKM@entry{id=10,open,dest={73656374696F6E2E342E31},srcline={62}}{342E3120636F6E6669677572617A696F6E6520616D6269656E7465206469206C61766F726F20707432205C284275696C645C29}
\@writefile{toc}{\defcounter {refsection}{0}\relax }\@writefile{toc}{\contentsline {paragraph}{Dipendenze}{24}{section*.34}}
\@writefile{toc}{\defcounter {refsection}{0}\relax }\@writefile{toc}{\contentsline {paragraph}{Esempio: python}{24}{section*.35}}
\@writefile{toc}{\defcounter {refsection}{0}\relax }\@writefile{toc}{\contentsline {subparagraph}{Problemi}{24}{section*.36}}
\@writefile{toc}{\defcounter {refsection}{0}\relax }\@writefile{toc}{\contentsline {section}{\numberline {4.1}configurazione ambiente di lavoro pt2 (Build)}{24}{section.4.1}}
\@writefile{toc}{\defcounter {refsection}{0}\relax }\@writefile{toc}{\contentsline {paragraph}{Dependency hell}{24}{section*.37}}
\BKM@entry{id=11,open,dest={73656374696F6E2E342E32},srcline={89}}{342E32204275696C64206175746F6D6174696F6E}
\@writefile{toc}{\defcounter {refsection}{0}\relax }\@writefile{toc}{\contentsline {section}{\numberline {4.2}Build automation}{25}{section.4.2}}
\@writefile{toc}{\defcounter {refsection}{0}\relax }\@writefile{toc}{\contentsline {subsection}{\numberline {4.2.1}Make}{25}{subsection.4.2.1}}
\@writefile{toc}{\defcounter {refsection}{0}\relax }\@writefile{toc}{\contentsline {paragraph}{Portabilit\IeC {\`a} della costruzione}{25}{section*.38}}
\@writefile{toc}{\defcounter {refsection}{0}\relax }\@writefile{toc}{\contentsline {subparagraph}{(Esempio) Non-portability del C}{26}{section*.39}}
\@writefile{toc}{\defcounter {refsection}{0}\relax }\@writefile{toc}{\contentsline {subparagraph}{Come risolvevamo questo problema}{26}{section*.40}}
\@writefile{toc}{\defcounter {refsection}{0}\relax }\@writefile{toc}{\contentsline {paragraph}{Automake}{26}{section*.41}}
\@writefile{toc}{\defcounter {refsection}{0}\relax }\@writefile{toc}{\contentsline {paragraph}{Configure}{26}{section*.42}}
\@writefile{toc}{\defcounter {refsection}{0}\relax }\@writefile{toc}{\contentsline {paragraph}{Autoconf}{26}{section*.43}}
\@writefile{toc}{\defcounter {refsection}{0}\relax }\@writefile{toc}{\contentsline {subparagraph}{configure process}{26}{section*.44}}
\@writefile{toc}{\defcounter {refsection}{0}\relax }\@writefile{toc}{\contentsline {subsection}{\numberline {4.2.2}Build automation tool (quelli veri)}{27}{subsection.4.2.2}}
\@writefile{toc}{\defcounter {refsection}{0}\relax }\@writefile{toc}{\contentsline {paragraph}{Ant}{27}{section*.45}}
\@writefile{toc}{\defcounter {refsection}{0}\relax }\@writefile{toc}{\contentsline {subparagraph}{Come \IeC {\`e} fatto ant}{27}{section*.46}}
\@writefile{toc}{\defcounter {refsection}{0}\relax }\@writefile{toc}{\contentsline {paragraph}{Gradle}{27}{section*.47}}
\@writefile{toc}{\defcounter {refsection}{0}\relax }\@writefile{toc}{\contentsline {subparagraph}{Esempio gradle}{27}{section*.48}}
\BKM@entry{id=12,open,dest={73656374696F6E2E342E33},srcline={253}}{342E33204C6120646F63756D656E74617A696F6E65}
\@writefile{toc}{\defcounter {refsection}{0}\relax }\@writefile{toc}{\contentsline {subsection}{\numberline {4.2.3}Continous integration}{28}{subsection.4.2.3}}
\@writefile{toc}{\defcounter {refsection}{0}\relax }\@writefile{toc}{\contentsline {paragraph}{CI}{28}{section*.49}}
\@writefile{toc}{\defcounter {refsection}{0}\relax }\@writefile{toc}{\contentsline {section}{\numberline {4.3}La documentazione}{29}{section.4.3}}
\@writefile{toc}{\defcounter {refsection}{0}\relax }\@writefile{toc}{\contentsline {subsection}{\numberline {4.3.1}La suddivisione del lavoro sw e gli interface fault}{29}{subsection.4.3.1}}
\@writefile{toc}{\defcounter {refsection}{0}\relax }\@writefile{toc}{\contentsline {paragraph}{Correttezza e robustezza}{29}{section*.50}}
\@writefile{toc}{\defcounter {refsection}{0}\relax }\@writefile{toc}{\contentsline {paragraph}{What and how}{29}{section*.51}}
\BKM@entry{id=13,open,dest={73656374696F6E2E342E34},srcline={332}}{342E34204C6120736F6C757A696F6E6520616420696E74657266616365206661756C74}
\@writefile{toc}{\defcounter {refsection}{0}\relax }\@writefile{toc}{\contentsline {paragraph}{Specifiche nel lavoro di gruppo}{30}{section*.52}}
\@writefile{toc}{\defcounter {refsection}{0}\relax }\@writefile{toc}{\contentsline {paragraph}{La suddivisione non vuol dire isolamento}{30}{section*.53}}
\@writefile{toc}{\defcounter {refsection}{0}\relax }\@writefile{toc}{\contentsline {section}{\numberline {4.4}La soluzione ad interface fault}{30}{section.4.4}}
\@writefile{toc}{\defcounter {refsection}{0}\relax }\@writefile{toc}{\contentsline {paragraph}{Assertion}{30}{section*.54}}
\@writefile{toc}{\defcounter {refsection}{0}\relax }\@writefile{toc}{\contentsline {subparagraph}{Primo caso di asserzioni Rosenblum}{31}{section*.55}}
\@writefile{toc}{\defcounter {refsection}{0}\relax }\@writefile{toc}{\contentsline {subparagraph}{Assume}{31}{section*.56}}
\@writefile{toc}{\defcounter {refsection}{0}\relax }\@writefile{toc}{\contentsline {subparagraph}{Promise}{31}{section*.57}}
\@writefile{toc}{\defcounter {refsection}{0}\relax }\@writefile{toc}{\contentsline {subparagraph}{Return}{31}{section*.58}}
\@writefile{toc}{\defcounter {refsection}{0}\relax }\@writefile{toc}{\contentsline {paragraph}{Classificazione delle asserzioni}{31}{section*.59}}
\@writefile{toc}{\defcounter {refsection}{0}\relax }\@writefile{toc}{\contentsline {subsection}{\numberline {4.4.1}Design by contract}{31}{subsection.4.4.1}}
\@writefile{toc}{\defcounter {refsection}{0}\relax }\@writefile{toc}{\contentsline {paragraph}{Hoare triple}{32}{section*.60}}
\@writefile{toc}{\defcounter {refsection}{0}\relax }\@writefile{toc}{\contentsline {paragraph}{Contratti}{32}{section*.61}}
\@writefile{toc}{\defcounter {refsection}{0}\relax }\@writefile{toc}{\contentsline {subparagraph}{Casi limite}{32}{section*.62}}
\BKM@entry{id=14,open,dest={636861707465722E35},flags=2,srcline={111}}{352044657369676E20627920636F6E7472616374}
\BKM@entry{id=15,open,dest={73656374696F6E2E352E31},srcline={7}}{352E312045696666656C}
\@writefile{toc}{\defcounter {refsection}{0}\relax }\@writefile{toc}{\contentsline {chapter}{\numberline {5}Design by contract}{33}{chapter.5}}
\@writefile{lof}{\defcounter {refsection}{0}\relax }\@writefile{lof}{\addvspace {10\p@ }}
\@writefile{lot}{\defcounter {refsection}{0}\relax }\@writefile{lot}{\addvspace {10\p@ }}
\pgfsyspdfmark {pgfid16}{0}{55380990}
\pgfsyspdfmark {pgfid15}{5594039}{48902215}
\@writefile{toc}{\defcounter {refsection}{0}\relax }\@writefile{toc}{\contentsline {subsection}{\numberline {5.0.1}Contratti}{33}{subsection.5.0.1}}
\@writefile{toc}{\defcounter {refsection}{0}\relax }\@writefile{toc}{\contentsline {section}{\numberline {5.1}Eiffel}{33}{section.5.1}}
\@writefile{toc}{\defcounter {refsection}{0}\relax }\@writefile{toc}{\contentsline {paragraph}{Esempio}{33}{section*.63}}
\@writefile{toc}{\defcounter {refsection}{0}\relax }\@writefile{toc}{\contentsline {paragraph}{Organizzazione delle asserzioni}{34}{section*.64}}
\@writefile{toc}{\defcounter {refsection}{0}\relax }\@writefile{toc}{\contentsline {subparagraph}{Invarianti di classe}{34}{section*.65}}
\@writefile{toc}{\defcounter {refsection}{0}\relax }\@writefile{toc}{\contentsline {paragraph}{Contratti ed ereditariet\IeC {\`a}}{34}{section*.66}}
\@writefile{toc}{\defcounter {refsection}{0}\relax }\@writefile{toc}{\contentsline {subparagraph}{Principio di sostituibilit\IeC {\`a}}{34}{section*.67}}
\@writefile{toc}{\defcounter {refsection}{0}\relax }\@writefile{toc}{\contentsline {subparagraph}{Quindi in pratica}{35}{section*.68}}
\@writefile{toc}{\defcounter {refsection}{0}\relax }\@writefile{toc}{\contentsline {paragraph}{Eccezioni}{35}{section*.69}}
\BKM@entry{id=16,open,dest={706172742E32},color={.95294 .4 .09804},flags=2,srcline={122}}{50617274204949205C3230342042454C4C455453}
\@writefile{toc}{\defcounter {refsection}{0}\relax }\@writefile{toc}{\contentsline {part}{\@mypartnumtocformat {II}{BELLETS}}{37}{part.2}}
\ttl@writefile{ptc}{\ttl@stoptoc{default@1}}
\ttl@writefile{ptc}{\ttl@starttoc{default@2}}
\pgfsyspdfmark {pgfid18}{0}{55380990}
\pgfsyspdfmark {pgfid17}{6708151}{33817350}
\BKM@entry{id=17,open,dest={636861707465722E36},flags=2,srcline={127}}{3620536F66747761726520436F6E66696775726174696F6E204D616E6167656D656E74}
\BKM@entry{id=18,open,dest={73656374696F6E2E362E31},srcline={1}}{362E312053434D}
\@writefile{toc}{\defcounter {refsection}{0}\relax }\@writefile{toc}{\contentsline {chapter}{\numberline {6}Software Configuration Management}{39}{chapter.6}}
\@writefile{lof}{\defcounter {refsection}{0}\relax }\@writefile{lof}{\addvspace {10\p@ }}
\@writefile{lot}{\defcounter {refsection}{0}\relax }\@writefile{lot}{\addvspace {10\p@ }}
\pgfsyspdfmark {pgfid20}{0}{55380990}
\pgfsyspdfmark {pgfid19}{5594039}{48902215}
\@writefile{toc}{\defcounter {refsection}{0}\relax }\@writefile{toc}{\contentsline {section}{\numberline {6.1}SCM}{39}{section.6.1}}
\@writefile{toc}{\defcounter {refsection}{0}\relax }\@writefile{toc}{\contentsline {paragraph}{Di cosa si occupano?}{39}{section*.70}}
\@writefile{toc}{\defcounter {refsection}{0}\relax }\@writefile{toc}{\contentsline {subparagraph}{Lavorer\IeC {\`a} su due livelli diversi.}{39}{section*.71}}
\@writefile{toc}{\defcounter {refsection}{0}\relax }\@writefile{toc}{\contentsline {paragraph}{Gli strumenti di SCM}{40}{section*.72}}
\@writefile{toc}{\defcounter {refsection}{0}\relax }\@writefile{toc}{\contentsline {subsection}{\numberline {6.1.1}Due decisioni importanti}{40}{subsection.6.1.1}}
\@writefile{toc}{\defcounter {refsection}{0}\relax }\@writefile{toc}{\contentsline {subsection}{\numberline {6.1.2}Il meccanismo base}{40}{subsection.6.1.2}}
\@writefile{toc}{\defcounter {refsection}{0}\relax }\@writefile{toc}{\contentsline {paragraph}{Perch\IeC {\`e} la riga?}{40}{section*.73}}
\@writefile{toc}{\defcounter {refsection}{0}\relax }\@writefile{toc}{\contentsline {paragraph}{Check-out}{40}{section*.74}}
\@writefile{toc}{\defcounter {refsection}{0}\relax }\@writefile{toc}{\contentsline {paragraph}{Check-in o commit}{40}{section*.75}}
\@writefile{toc}{\defcounter {refsection}{0}\relax }\@writefile{toc}{\contentsline {subsection}{\numberline {6.1.3}La regolazione del lavoro concorrente}{40}{subsection.6.1.3}}
\@writefile{toc}{\defcounter {refsection}{0}\relax }\@writefile{toc}{\contentsline {paragraph}{Merge}{41}{section*.76}}
\@writefile{toc}{\defcounter {refsection}{0}\relax }\@writefile{toc}{\contentsline {subsection}{\numberline {6.1.4}3-way merge}{41}{subsection.6.1.4}}
\BKM@entry{id=19,open,dest={636861707465722E37},flags=2,srcline={133}}{37204749542031}
\BKM@entry{id=20,open,dest={73656374696F6E2E372E31},srcline={6}}{372E3120496E7465726E616C73}
\@writefile{toc}{\defcounter {refsection}{0}\relax }\@writefile{toc}{\contentsline {chapter}{\numberline {7}GIT 1}{43}{chapter.7}}
\@writefile{lof}{\defcounter {refsection}{0}\relax }\@writefile{lof}{\addvspace {10\p@ }}
\@writefile{lot}{\defcounter {refsection}{0}\relax }\@writefile{lot}{\addvspace {10\p@ }}
\pgfsyspdfmark {pgfid22}{0}{55380990}
\pgfsyspdfmark {pgfid21}{5594039}{48902215}
\@writefile{toc}{\defcounter {refsection}{0}\relax }\@writefile{toc}{\contentsline {section}{\numberline {7.1}Internals}{43}{section.7.1}}
\@writefile{toc}{\defcounter {refsection}{0}\relax }\@writefile{toc}{\contentsline {subsection}{\numberline {7.1.1}Comandi base}{43}{subsection.7.1.1}}
\@writefile{toc}{\defcounter {refsection}{0}\relax }\@writefile{toc}{\contentsline {paragraph}{git init}{43}{section*.77}}
\@writefile{toc}{\defcounter {refsection}{0}\relax }\@writefile{toc}{\contentsline {paragraph}{git status}{44}{section*.78}}
\@writefile{toc}{\defcounter {refsection}{0}\relax }\@writefile{toc}{\contentsline {paragraph}{git add \textit  {file}}{44}{section*.79}}
\@writefile{toc}{\defcounter {refsection}{0}\relax }\@writefile{toc}{\contentsline {subparagraph}{Registrazione versione}{44}{section*.80}}
\@writefile{toc}{\defcounter {refsection}{0}\relax }\@writefile{toc}{\contentsline {paragraph}{git commit}{44}{section*.81}}
\@writefile{toc}{\defcounter {refsection}{0}\relax }\@writefile{toc}{\contentsline {paragraph}{Aggiungo un file uguale}{44}{section*.82}}
\@writefile{toc}{\defcounter {refsection}{0}\relax }\@writefile{toc}{\contentsline {subsection}{\numberline {7.1.2}Struttura file}{44}{subsection.7.1.2}}
\BKM@entry{id=21,open,dest={73656374696F6E2E372E32},srcline={89}}{372E3220436F6E74656E75746F20646920756E202E6769742F6F626A656374732F58582F66696C65}
\BKM@entry{id=22,open,dest={73656374696F6E2E372E33},srcline={103}}{372E33205269636F737472756973636F20776F726B696E676469726563746F7279206461202E676974}
\BKM@entry{id=23,open,dest={73656374696F6E2E372E34},srcline={107}}{372E342042617265}
\@writefile{toc}{\defcounter {refsection}{0}\relax }\@writefile{toc}{\contentsline {section}{\numberline {7.2}Contenuto di un .git/objects/XX/file}{45}{section.7.2}}
\@writefile{toc}{\defcounter {refsection}{0}\relax }\@writefile{toc}{\contentsline {section}{\numberline {7.3}Ricostruisco workingdirectory da .git}{45}{section.7.3}}
\BKM@entry{id=24,open,dest={73656374696F6E2E372E35},srcline={129}}{372E35204C27696E646578}
\@writefile{toc}{\defcounter {refsection}{0}\relax }\@writefile{toc}{\contentsline {section}{\numberline {7.4}Bare}{46}{section.7.4}}
\@writefile{toc}{\defcounter {refsection}{0}\relax }\@writefile{toc}{\contentsline {subsection}{\numberline {7.4.1}Elementi essenziali del repository}{46}{subsection.7.4.1}}
\@writefile{toc}{\defcounter {refsection}{0}\relax }\@writefile{toc}{\contentsline {section}{\numberline {7.5}L'index}{46}{section.7.5}}
\BKM@entry{id=25,open,dest={636861707465722E38},flags=2,srcline={139}}{38204749542032}
\BKM@entry{id=26,open,dest={73656374696F6E2E382E31},srcline={7}}{382E31204272616E6368}
\@writefile{toc}{\defcounter {refsection}{0}\relax }\@writefile{toc}{\contentsline {chapter}{\numberline {8}GIT 2}{47}{chapter.8}}
\@writefile{lof}{\defcounter {refsection}{0}\relax }\@writefile{lof}{\addvspace {10\p@ }}
\@writefile{lot}{\defcounter {refsection}{0}\relax }\@writefile{lot}{\addvspace {10\p@ }}
\pgfsyspdfmark {pgfid24}{0}{55380990}
\pgfsyspdfmark {pgfid23}{5594039}{48902215}
\@writefile{toc}{\defcounter {refsection}{0}\relax }\@writefile{toc}{\contentsline {paragraph}{Ripasso}{47}{section*.83}}
\@writefile{toc}{\defcounter {refsection}{0}\relax }\@writefile{toc}{\contentsline {section}{\numberline {8.1}Branch}{47}{section.8.1}}
\@writefile{toc}{\defcounter {refsection}{0}\relax }\@writefile{toc}{\contentsline {subsection}{\numberline {8.1.1}git commit --ammend}{47}{subsection.8.1.1}}
\BKM@entry{id=27,open,dest={73656374696F6E2E382E32},srcline={36}}{382E3220636F6D6520726966657269727369206120756E20636F6D6D6974}
\BKM@entry{id=28,open,dest={73656374696F6E2E382E33},srcline={41}}{382E33206769742064696666}
\@writefile{toc}{\defcounter {refsection}{0}\relax }\@writefile{toc}{\contentsline {subsection}{\numberline {8.1.2}.git/logs/HEAD}{48}{subsection.8.1.2}}
\@writefile{toc}{\defcounter {refsection}{0}\relax }\@writefile{toc}{\contentsline {subsection}{\numberline {8.1.3}git reflogs}{48}{subsection.8.1.3}}
\@writefile{toc}{\defcounter {refsection}{0}\relax }\@writefile{toc}{\contentsline {section}{\numberline {8.2}come riferirsi a un commit}{48}{section.8.2}}
\@writefile{toc}{\defcounter {refsection}{0}\relax }\@writefile{toc}{\contentsline {paragraph}{Esercizio}{48}{section*.84}}
\@writefile{toc}{\defcounter {refsection}{0}\relax }\@writefile{toc}{\contentsline {section}{\numberline {8.3}git diff}{48}{section.8.3}}
\BKM@entry{id=29,open,dest={636861707465722E39},flags=2,srcline={145}}{39204749542033}
\@writefile{toc}{\defcounter {refsection}{0}\relax }\@writefile{toc}{\contentsline {chapter}{\numberline {9}GIT 3}{49}{chapter.9}}
\@writefile{lof}{\defcounter {refsection}{0}\relax }\@writefile{lof}{\addvspace {10\p@ }}
\@writefile{lot}{\defcounter {refsection}{0}\relax }\@writefile{lot}{\addvspace {10\p@ }}
\pgfsyspdfmark {pgfid26}{0}{55380990}
\pgfsyspdfmark {pgfid25}{5594039}{48902215}
\@writefile{toc}{\defcounter {refsection}{0}\relax }\@writefile{toc}{\contentsline {subsection}{\numberline {9.0.1}File non committati}{49}{subsection.9.0.1}}
\@writefile{toc}{\defcounter {refsection}{0}\relax }\@writefile{toc}{\contentsline {paragraph}{git add -p}{49}{section*.85}}
\@writefile{toc}{\defcounter {refsection}{0}\relax }\@writefile{toc}{\contentsline {paragraph}{git merge}{49}{section*.86}}
\@writefile{lof}{\defcounter {refsection}{0}\relax }\@writefile{lof}{\contentsline {figure}{\numberline {9.1}{\ignorespaces Blablabla...}}{50}{figure.9.1}}
\newlabel{fig:1}{{9.1}{50}{Blablabla..}{figure.9.1}{}}
\@writefile{lof}{\defcounter {refsection}{0}\relax }\@writefile{lof}{\contentsline {figure}{\numberline {9.2}{\ignorespaces Blablabla...}}{51}{figure.9.2}}
\newlabel{fig:1}{{9.2}{51}{Blablabla..}{figure.9.2}{}}
\@writefile{lof}{\defcounter {refsection}{0}\relax }\@writefile{lof}{\contentsline {figure}{\numberline {9.3}{\ignorespaces Eseguo il comando dal branch "secondario"}}{51}{figure.9.3}}
\newlabel{fig:1}{{9.3}{51}{Eseguo il comando dal branch "secondario"}{figure.9.3}{}}
\@writefile{toc}{\defcounter {refsection}{0}\relax }\@writefile{toc}{\contentsline {subparagraph}{Caso particolare}{51}{section*.87}}
\@writefile{toc}{\defcounter {refsection}{0}\relax }\@writefile{toc}{\contentsline {paragraph}{REBASE}{51}{section*.88}}
\@writefile{toc}{\defcounter {refsection}{0}\relax }\@writefile{toc}{\contentsline {paragraph}{git rebase --onto}{51}{section*.89}}
\@writefile{toc}{\defcounter {refsection}{0}\relax }\@writefile{toc}{\contentsline {paragraph}{bho}{51}{section*.90}}
\BKM@entry{id=30,open,dest={636861707465722E3130},flags=2,srcline={150}}{3130204749542034}
\@writefile{toc}{\defcounter {refsection}{0}\relax }\@writefile{toc}{\contentsline {chapter}{\numberline {10}GIT 4}{53}{chapter.10}}
\@writefile{lof}{\defcounter {refsection}{0}\relax }\@writefile{lof}{\addvspace {10\p@ }}
\@writefile{lot}{\defcounter {refsection}{0}\relax }\@writefile{lot}{\addvspace {10\p@ }}
\pgfsyspdfmark {pgfid28}{0}{55380990}
\pgfsyspdfmark {pgfid27}{5594039}{48902215}
\@writefile{toc}{\defcounter {refsection}{0}\relax }\@writefile{toc}{\contentsline {subsection}{\numberline {10.0.1}git bisect}{53}{subsection.10.0.1}}
\@writefile{toc}{\defcounter {refsection}{0}\relax }\@writefile{toc}{\contentsline {paragraph}{Esercizi}{53}{section*.91}}
\@writefile{toc}{\defcounter {refsection}{0}\relax }\@writefile{toc}{\contentsline {subsection}{\numberline {10.0.2}git blame}{53}{subsection.10.0.2}}
\@writefile{toc}{\defcounter {refsection}{0}\relax }\@writefile{toc}{\contentsline {subsection}{\numberline {10.0.3}git stash}{53}{subsection.10.0.3}}
\@writefile{toc}{\defcounter {refsection}{0}\relax }\@writefile{toc}{\contentsline {paragraph}{Pulling into a dirty tree}{54}{section*.92}}
\@writefile{toc}{\defcounter {refsection}{0}\relax }\@writefile{toc}{\contentsline {subparagraph}{Metodo brutto}{54}{section*.93}}
\@writefile{toc}{\defcounter {refsection}{0}\relax }\@writefile{toc}{\contentsline {subsection}{\numberline {10.0.4}hooks}{54}{subsection.10.0.4}}
\@writefile{toc}{\defcounter {refsection}{0}\relax }\@writefile{toc}{\contentsline {subsection}{\numberline {10.0.5}git submodule}{54}{subsection.10.0.5}}
\BKM@entry{id=31,open,dest={636861707465722E3131},flags=2,srcline={156}}{313120474954204F4E4C494E45}
\BKM@entry{id=32,open,dest={73656374696F6E2E31312E31},srcline={2}}{31312E3120436F6D616E646920706C756D62696E67}
\@writefile{toc}{\defcounter {refsection}{0}\relax }\@writefile{toc}{\contentsline {chapter}{\numberline {11}GIT ONLINE}{55}{chapter.11}}
\@writefile{lof}{\defcounter {refsection}{0}\relax }\@writefile{lof}{\addvspace {10\p@ }}
\@writefile{lot}{\defcounter {refsection}{0}\relax }\@writefile{lot}{\addvspace {10\p@ }}
\pgfsyspdfmark {pgfid30}{0}{55380990}
\pgfsyspdfmark {pgfid29}{5594039}{48902215}
\@writefile{toc}{\defcounter {refsection}{0}\relax }\@writefile{toc}{\contentsline {section}{\numberline {11.1}Comandi plumbing}{55}{section.11.1}}
\@writefile{toc}{\defcounter {refsection}{0}\relax }\@writefile{toc}{\contentsline {subsection}{\numberline {11.1.1}Git references}{56}{subsection.11.1.1}}
\@writefile{toc}{\defcounter {refsection}{0}\relax }\@writefile{toc}{\contentsline {paragraph}{HEAD}{56}{section*.94}}
\@writefile{toc}{\defcounter {refsection}{0}\relax }\@writefile{toc}{\contentsline {paragraph}{TAG}{56}{section*.95}}
\BKM@entry{id=33,open,dest={73656374696F6E2E31312E32},srcline={162}}{31312E3220466967757265}
\@writefile{toc}{\defcounter {refsection}{0}\relax }\@writefile{toc}{\contentsline {paragraph}{remotes}{57}{section*.96}}
\@writefile{toc}{\defcounter {refsection}{0}\relax }\@writefile{toc}{\contentsline {section}{\numberline {11.2}Figure}{57}{section.11.2}}
\@writefile{lof}{\defcounter {refsection}{0}\relax }\@writefile{lof}{\contentsline {figure}{\numberline {11.1}{\ignorespaces Figure caption}}{57}{figure.11.1}}
\BKM@entry{id=34,open,dest={636861707465722A2E3937},flags=2,srcline={174}}{4269626C696F677261706879}
\BKM@entry{id=35,open,dest={73656374696F6E2A2E3938},srcline={176}}{426F6F6B73}
\BKM@entry{id=36,open,dest={73656374696F6E2A2E3939},srcline={179}}{41727469636C6573}
\pgfsyspdfmark {pgfid32}{0}{55380990}
\pgfsyspdfmark {pgfid31}{6708151}{48902215}
\@writefile{toc}{\defcounter {refsection}{0}\relax }\@writefile{toc}{\contentsline {chapter}{\leavevmode {\color  {ocre}Bibliography}}{59}{chapter*.97}}
\@writefile{toc}{\defcounter {refsection}{0}\relax }\@writefile{toc}{\contentsline {section}{Books}{59}{section*.98}}
\@writefile{toc}{\defcounter {refsection}{0}\relax }\@writefile{toc}{\contentsline {section}{Articles}{59}{section*.99}}
\BKM@entry{id=37,open,dest={73656374696F6E2A2E313030},flags=2,srcline={189}}{496E646578}
\ttl@finishall
